Modelling with R: Status Quo (2017-05-01 - 2020-10-31) • flextreat.hydrus1d
…
kwb.utils::preparePdf(pdfFile = sprintf("solute_yearmonth_%s.pdf", 
                                        paths$scenario),
                      width.cm = 22, 
                      height.cm = 10)
#> [1] "solute_yearmonth_status-quo.pdf"
solute_yearmonth_plot
dev.off()
#> agg_png 
#>       2

t_level <- kwb.hydrus1d::read_tlevel(paths$t_level)
t_level
#> # A tibble: 23,035 × 22
#>     time r_top r_root  v_top v_root    v_bot sum_r_top sum_r_r…¹ sum_v…² sum_v…³
#>  * <dbl> <dbl>  <dbl>  <dbl>  <dbl>    <dbl>     <dbl>     <dbl>   <dbl>   <dbl>
#>  1 0.05  0.205      0 0.205       0 -0.00173    0.0103         0  0.0103       0
#>  2 0.1   0.205      0 0.205       0 -0.00173    0.0205         0  0.0205       0
#>  3 0.155 0.205      0 0.205       0 -0.00173    0.0318         0  0.0318       0
#>  4 0.216 0.205      0 0.205       0 -0.00173    0.0442         0  0.0442       0
#>  5 0.223 0.205      0 0.0976      0 -0.00173    0.0457         0  0.0449       0
#>  6 0.231 0.205      0 0.0948      0 -0.00173    0.0474         0  0.0457       0
#>  7 0.24  0.205      0 0.104       0 -0.00173    0.0492         0  0.0466       0
#>  8 0.250 0.205      0 0.0901      0 -0.00173    0.0512         0  0.0475       0
#>  9 0.261 0.205      0 0.0819      0 -0.00173    0.0534         0  0.0484       0
#> 10 0.273 0.205      0 0.0717      0 -0.00173    0.0559         0  0.0492       0
#> # … with 23,025 more rows, 12 more variables: sum_v_bot <dbl>, h_top <dbl>,
#> #   h_root <dbl>, h_bot <dbl>, run_off <dbl>, sum_run_off <dbl>, volume <dbl>,
#> #   sum_infil <dbl>, sum_evap <dbl>, t_level <dbl>, cum_w_trans <dbl>,
#> #   snow_layer <dbl>, and abbreviated variable names ¹​sum_r_root, ²​sum_v_top,
#> #   ³​sum_v_root
…
saveRDS(wb_yearmonth_plot, 
        file = sprintf("wb_yearmonth_%s.Rds", paths$scenario))

plotly::ggplotly(wb_date_plot)

plotly::ggplotly(wb_yearmonth_plot)

a_level <- kwb.hydrus1d::read_alevel(paths$a_level)
a_level
#> # A tibble: 1,279 × 10
#>     time sum_r_top sum_r…¹ sum_v…² sum_v…³ sum_v_…⁴   h_top h_root h_bot a_level
#>  * <dbl>     <dbl>   <dbl>   <dbl>   <dbl>    <dbl>   <dbl>  <dbl> <dbl>   <dbl>
#>  1     1    0.205        0  0.0703       0 -0.00173 -1   e5      0 -116.       1
#>  2     2   -0.295        0 -0.430        0 -0.00346 -8.14e1      0 -116.       2
#>  3     3   -0.160        0 -0.295        0 -0.00520 -2.08e2      0 -116.       3
#>  4     4   -0.326        0 -0.460        0 -0.00693 -9.47e1      0 -116.       4
#>  5     5   -0.361        0 -0.496        0 -0.00866 -1.08e2      0 -116.       5
#>  6     6   -0.276        0 -0.411        0 -0.0104  -2.35e2      0 -116.       6
#>  7     7   -0.0982       0 -0.334        0 -0.0121  -1   e5      0 -116.       7
#>  8     8   -0.0951       0 -0.331        0 -0.0139  -2.54e2      0 -116.       8
#>  9     9    0.0395       0 -0.288        0 -0.0156  -1   e5      0 -116.       9
#> 10    10    0.174        0 -0.270        0 -0.0173  -1   e5      0 -116.      10
#> # … with 1,269 more rows, and abbreviated variable names ¹​sum_r_root,
#> #   ²​sum_v_top, ³​sum_v_root, ⁴​sum_v_bot
…
