Modelling with R: No Irrigation (2017-05-01 - 2020-10-31) • flextreat.hydrus1d
…
Water Balance

t_level <- kwb.hydrus1d::read_tlevel(paths$t_level)
t_level
#> # A tibble: 25,085 × 22
#>     time r_top r_root  v_top v_root    v_bot sum_r_top sum_r_root sum_v_top
#>  * <dbl> <dbl>  <dbl>  <dbl>  <dbl>    <dbl>     <dbl>      <dbl>     <dbl>
#>  1 0.05  0.310      0 0.310       0 -0.00173    0.0155          0    0.0155
#>  2 0.1   0.310      0 0.310       0 -0.00173    0.0310          0    0.0310
#>  3 0.117 0.310      0 0.310       0 -0.00173    0.0362          0    0.0362
#>  4 0.135 0.310      0 0.225       0 -0.00173    0.0419          0    0.0403
#>  5 0.142 0.310      0 0.131       0 -0.00173    0.0440          0    0.0412
#>  6 0.149 0.310      0 0.106       0 -0.00173    0.0463          0    0.0420
#>  7 0.157 0.310      0 0.106       0 -0.00173    0.0488          0    0.0429
#>  8 0.166 0.310      0 0.0982      0 -0.00173    0.0516          0    0.0438
#>  9 0.176 0.310      0 0.0914      0 -0.00173    0.0546          0    0.0447
#> 10 0.187 0.310      0 0.0837      0 -0.00173    0.0580          0    0.0456
#> # ℹ 25,075 more rows
#> # ℹ 13 more variables: sum_v_root <dbl>, sum_v_bot <dbl>, h_top <dbl>,
#> #   h_root <dbl>, h_bot <dbl>, run_off <dbl>, sum_run_off <dbl>, volume <dbl>,
#> #   sum_infil <dbl>, sum_evap <dbl>, t_level <dbl>, cum_w_trans <dbl>,
#> #   snow_layer <dbl>
…
wb_yearmonth_plot
dev.off()
#> agg_png 
#>       2

saveRDS(wb_yearmonth_plot, 
        file = sprintf("wb_yearmonth_%s.Rds", paths$scenario))

plotly::ggplotly(wb_date_plot)

plotly::ggplotly(wb_yearmonth_plot)

a_level <- kwb.hydrus1d::read_alevel(paths$a_level)
a_level
#> # A tibble: 1,279 × 10
#>     time sum_r_top sum_r_root sum_v_top sum_v_root sum_v_bot     h_top h_root
#>  * <dbl>     <dbl>      <dbl>     <dbl>      <dbl>     <dbl>     <dbl>  <dbl>
#>  1     1    0.310           0    0.0699          0  -0.00173 -100000        0
#>  2     2   -0.0843          0   -0.325           0  -0.00346     -85.5      0
#>  3     3    0.156           0   -0.122           0  -0.00520 -100000        0
#>  4     4    0.0961          0   -0.182           0  -0.00693    -120.       0
#>  5     5    0.166           0   -0.112           0  -0.00866   -2016.       0
#>  6     6    0.356           0   -0.0768          0  -0.0104  -100000        0
#>  7     7    0.640           0   -0.0598          0  -0.0121  -100000        0
#>  8     8    0.748           0   -0.0476          0  -0.0139  -100000        0
#>  9     9    0.988           0   -0.0385          0  -0.0156  -100000        0
#> 10    10    1.23            0   -0.0292          0  -0.0173  -100000        0
#> # ℹ 1,269 more rows
#> # ℹ 2 more variables: h_bot <dbl>, a_level <dbl>
…
